<?xml version="1.0" encoding="UTF-8" standalone="no"?>
<!-- Created with Inkscape (http://www.inkscape.org/) -->

<svg
   xmlns:dc="http://purl.org/dc/elements/1.1/"
   xmlns:cc="http://creativecommons.org/ns#"
   xmlns:rdf="http://www.w3.org/1999/02/22-rdf-syntax-ns#"
   xmlns:svg="http://www.w3.org/2000/svg"
   xmlns="http://www.w3.org/2000/svg"
   xmlns:sodipodi="http://sodipodi.sourceforge.net/DTD/sodipodi-0.dtd"
   xmlns:inkscape="http://www.inkscape.org/namespaces/inkscape"
   width="32"
   height="32"
   id="svg4420"
   version="1.1"
   inkscape:version="0.48.4 r9939"
   sodipodi:docname="astroweather-humidity-11.svg">
  <defs
     id="defs4422" />
  <sodipodi:namedview
     id="base"
     pagecolor="#555753"
     bordercolor="#555753"
     borderopacity="1"
     inkscape:pageopacity="1"
     inkscape:pageshadow="2"
     inkscape:zoom="11.098901"
     inkscape:cx="16.589986"
     inkscape:cy="22.561226"
     inkscape:current-layer="layer1"
     showgrid="true"
     inkscape:grid-bbox="true"
     inkscape:document-units="px"
     showborder="true"
     inkscape:snap-global="true"
     inkscape:snap-bbox="true"
     inkscape:window-width="1366"
     inkscape:window-height="702"
     inkscape:window-x="0"
     inkscape:window-y="27"
     inkscape:window-maximized="1"
     fit-margin-top="1"
     fit-margin-left="1"
     fit-margin-right="1"
     fit-margin-bottom="1">
    <inkscape:grid
       type="xygrid"
       id="grid5514"
       empspacing="5"
       visible="true"
       enabled="true"
       snapvisiblegridlinesonly="true"
       originx="16.000001px"
       originy="16px"
       spacingx="1px"
       spacingy="1px" />
  </sodipodi:namedview>
  <metadata
     id="metadata4425">
    <rdf:RDF>
      <cc:Work
         rdf:about="">
        <dc:format>image/svg+xml</dc:format>
        <dc:type
           rdf:resource="http://purl.org/dc/dcmitype/StillImage" />
        <dc:title></dc:title>
      </cc:Work>
    </rdf:RDF>
  </metadata>
  <g
     id="layer1"
     inkscape:label="Layer 1"
     inkscape:groupmode="layer"
     transform="translate(16.000001,4.1387285e-8)">
    <path
       style="fill:#bebebe;fill-opacity:1;stroke:#bebebe;stroke-width:0.10488272;stroke-miterlimit:4;stroke-opacity:1;stroke-dasharray:none"
       d="m -8.020623,3.0282938 c -0.517709,0 -0.935739,0.417508 -0.935739,0.93574 0,0.5182321 0.41803,0.9357401 0.935739,0.9357401 0.51771,0 0.93574,-0.417508 0.93574,-0.9357401 0,-0.518232 -0.41803,-0.93574 -0.93574,-0.93574 z"
       id="path4428"
       inkscape:connector-curvature="0" />
    <path
       style="fill:#bebebe;fill-opacity:1;stroke:#bebebe;stroke-width:0.10613715;stroke-miterlimit:4;stroke-opacity:1;stroke-dasharray:none"
       d="m -2.0094305,3.0247739 c -0.5239015,0 -0.9469315,0.4225013 -0.9469315,0.9469316 0,0.52443 0.42303,0.9469314 0.9469315,0.9469314 0.5239015,0 0.9469314,-0.4225014 0.9469314,-0.9469314 0,-0.5244303 -0.4230299,-0.9469316 -0.9469314,-0.9469316 z"
       id="path4428-2"
       inkscape:connector-curvature="0" />
    <path
       style="fill:#bebebe;fill-opacity:1;stroke:#bebebe;stroke-width:0.10613713;stroke-miterlimit:4;stroke-opacity:1;stroke-dasharray:none"
       d="m 3.990569,3.0247739 c -0.523902,0 -0.946931,0.4225013 -0.946931,0.9469316 0,0.52443 0.423029,0.9469314 0.946931,0.9469314 0.523902,0 0.946931,-0.4225014 0.946931,-0.9469314 0,-0.5244303 -0.423029,-0.9469316 -0.946931,-0.9469316 z"
       id="path4428-8-4"
       inkscape:connector-curvature="0" />
    <path
       style="fill:#bebebe;fill-opacity:1;stroke:#bebebe;stroke-width:0.10488272;stroke-miterlimit:4;stroke-opacity:1;stroke-dasharray:none"
       d="m -6.020623,6.047157 c -0.517709,0 -0.935739,0.417508 -0.935739,0.93574 0,0.518232 0.41803,0.93574 0.935739,0.93574 0.51771,0 0.93574,-0.417508 0.93574,-0.93574 0,-0.518232 -0.41803,-0.93574 -0.93574,-0.93574 z"
       id="path4428-25"
       inkscape:connector-curvature="0" />
    <path
       style="fill:#bebebe;fill-opacity:1;stroke:#bebebe;stroke-width:0.10613715;stroke-miterlimit:4;stroke-opacity:1;stroke-dasharray:none"
       d="m 0.990569,3.0247739 c -0.523901,0 -0.946931,0.4225013 -0.946931,0.9469316 0,0.52443 0.42303,0.9469314 0.946931,0.9469314 0.523902,0 0.946931,-0.4225014 0.946931,-0.9469314 0,-0.5244303 -0.423029,-0.9469316 -0.946931,-0.9469316 z"
       id="path4428-2-9"
       inkscape:connector-curvature="0" />
    <path
       style="fill:#bebebe;fill-opacity:1;stroke:#bebebe;stroke-width:0.10613713;stroke-miterlimit:4;stroke-opacity:1;stroke-dasharray:none"
       d="m 5.99057,6.024774 c -0.523902,0 -0.946932,0.422501 -0.946932,0.946932 0,0.52443 0.42303,0.946931 0.946932,0.946931 0.523902,0 0.946931,-0.422501 0.946931,-0.946931 0,-0.524431 -0.423029,-0.946932 -0.946931,-0.946932 z"
       id="path4428-8-4-4"
       inkscape:connector-curvature="0" />
    <path
       style="fill:#bebebe;fill-opacity:1;stroke:#bebebe;stroke-width:0.10613715;stroke-miterlimit:4;stroke-opacity:1;stroke-dasharray:none"
       d="m -0.009431,6.043637 c -0.523901,0 -0.946931,0.422501 -0.946931,0.946931 0,0.52443 0.42303,0.946932 0.946931,0.946932 0.523902,0 0.946931,-0.422502 0.946931,-0.946932 0,-0.52443 -0.423029,-0.946931 -0.946931,-0.946931 z"
       id="path4428-2-2"
       inkscape:connector-curvature="0" />
    <path
       style="fill:#bebebe;fill-opacity:1;stroke:#bebebe;stroke-width:0.10613713;stroke-miterlimit:4;stroke-opacity:1;stroke-dasharray:none"
       d="m 8.99057,6.043637 c -0.523902,0 -0.946932,0.422501 -0.946932,0.946931 0,0.52443 0.42303,0.946932 0.946932,0.946932 0.523902,0 0.946931,-0.422502 0.946931,-0.946932 0,-0.52443 -0.423029,-0.946931 -0.946931,-0.946931 z"
       id="path4428-8-4-25"
       inkscape:connector-curvature="0" />
    <path
       style="fill:#bebebe;fill-opacity:1;stroke:#bebebe;stroke-width:0.10613715;stroke-miterlimit:4;stroke-opacity:1;stroke-dasharray:none"
       d="m -5.009431,3.0059109 c -0.523901,0 -0.946931,0.4225013 -0.946931,0.9469316 0,0.52443 0.42303,0.9469314 0.946931,0.9469314 0.523902,0 0.946932,-0.4225014 0.946932,-0.9469314 0,-0.5244303 -0.42303,-0.9469316 -0.946932,-0.9469316 z"
       id="path4428-2-0"
       inkscape:connector-curvature="0" />
    <path
       style="fill:#bebebe;fill-opacity:1;stroke:#bebebe;stroke-width:0.10613715;stroke-miterlimit:4;stroke-opacity:1;stroke-dasharray:none"
       d="m -3.009431,6.024774 c -0.523901,0 -0.946931,0.422501 -0.946931,0.946931 0,0.52443 0.42303,0.946932 0.946931,0.946932 0.523902,0 0.946932,-0.422502 0.946932,-0.946932 0,-0.52443 -0.42303,-0.946931 -0.946932,-0.946931 z"
       id="path4428-2-6"
       inkscape:connector-curvature="0" />
    <path
       style="fill:#bebebe;fill-opacity:1;stroke:#bebebe;stroke-width:0.10613713;stroke-miterlimit:4;stroke-opacity:1;stroke-dasharray:none"
       d="m 6.990569,3.0059109 c -0.523902,0 -0.946931,0.4225013 -0.946931,0.9469316 0,0.52443 0.423029,0.9469314 0.946931,0.9469314 0.523902,0 0.946931,-0.4225014 0.946931,-0.9469314 0,-0.5244303 -0.423029,-0.9469316 -0.946931,-0.9469316 z"
       id="path4428-8-4-3"
       inkscape:connector-curvature="0" />
    <path
       style="fill:#bebebe;fill-opacity:1;stroke:#bebebe;stroke-width:0.10613713;stroke-miterlimit:4;stroke-opacity:1;stroke-dasharray:none"
       d="m -9.028293,6.0247741 c -0.523902,0 -0.946931,0.4225013 -0.946931,0.9469315 0,0.52443 0.423029,0.9469314 0.946931,0.9469314 0.523902,0 0.946931,-0.4225014 0.946931,-0.9469314 0,-0.5244302 -0.423029,-0.9469315 -0.946931,-0.9469315 z"
       id="path4428-8-4-9"
       inkscape:connector-curvature="0" />
    <path
       style="fill:#bebebe;fill-opacity:1;stroke:#bebebe;stroke-width:0.10613713;stroke-miterlimit:4;stroke-opacity:1;stroke-dasharray:none"
       d="m 9.99057,3.0247739 c -0.523902,0 -0.946932,0.422501 -0.946932,0.9469311 0,0.52443 0.42303,0.946932 0.946932,0.946932 0.523902,0 0.946931,-0.422502 0.946931,-0.946932 0,-0.5244301 -0.423029,-0.9469311 -0.946931,-0.9469311 z"
       id="path4428-8-4-25-9"
       inkscape:connector-curvature="0" />
    <path
       style="fill:#bebebe;fill-opacity:1;stroke:#bebebe;stroke-width:0.10613715;stroke-miterlimit:4;stroke-opacity:1;stroke-dasharray:none"
       d="m 2.990569,6.024774 c -0.523901,0 -0.946931,0.422501 -0.946931,0.946931 0,0.52443 0.42303,0.946932 0.946931,0.946932 0.523902,0 0.946931,-0.422502 0.946931,-0.946932 0,-0.52443 -0.423029,-0.946931 -0.946931,-0.946931 z"
       id="path4428-2-2-36"
       inkscape:connector-curvature="0" />
    <path
       style="fill:#bebebe;fill-opacity:1;stroke:#bebebe;stroke-width:0.10488272;stroke-miterlimit:4;stroke-opacity:1;stroke-dasharray:none"
       d="m -11.020624,2.9870478 c -0.517709,0 -0.935739,0.417508 -0.935739,0.93574 0,0.5182321 0.41803,0.9357401 0.935739,0.9357401 0.51771,0 0.93574,-0.417508 0.93574,-0.9357401 0,-0.518232 -0.41803,-0.93574 -0.93574,-0.93574 z"
       id="path4428-0"
       inkscape:connector-curvature="0" />
    <path
       style="fill:#bebebe;fill-opacity:1;stroke:#bebebe;stroke-width:0.10488272;stroke-miterlimit:4;stroke-opacity:1;stroke-dasharray:none"
       d="m -12.073692,6.009431 c -0.517709,0 -0.935739,0.417508 -0.935739,0.93574 0,0.518232 0.41803,0.93574 0.935739,0.93574 0.51771,0 0.93574,-0.417508 0.93574,-0.93574 0,-0.518232 -0.41803,-0.93574 -0.93574,-0.93574 z"
       id="path4428-34"
       inkscape:connector-curvature="0" />
    <path
       style="fill:#bebebe;fill-opacity:1;stroke:#bebebe;stroke-width:0.10613713;stroke-miterlimit:4;stroke-opacity:1;stroke-dasharray:none"
       d="m 12.99057,3.0247739 c -0.523902,0 -0.946932,0.422501 -0.946932,0.9469311 0,0.52443 0.42303,0.946932 0.946932,0.946932 0.523902,0 0.946931,-0.422502 0.946931,-0.946932 0,-0.5244301 -0.423029,-0.9469311 -0.946931,-0.9469311 z"
       id="path4428-8-4-25-9-09"
       inkscape:connector-curvature="0" />
    <path
       style="fill:#bebebe;fill-opacity:1;stroke:#bebebe;stroke-width:0.10613713;stroke-miterlimit:4;stroke-opacity:1;stroke-dasharray:none"
       d="m 11.99057,6.043637 c -0.523902,0 -0.946932,0.422501 -0.946932,0.946931 0,0.52443 0.42303,0.946932 0.946932,0.946932 0.523902,0 0.946931,-0.422502 0.946931,-0.946932 0,-0.52443 -0.423029,-0.946931 -0.946931,-0.946931 z"
       id="path4428-8-4-25-3"
       inkscape:connector-curvature="0" />
    <path
       style="fill:#bebebe;fill-opacity:1;stroke:#bebebe;stroke-width:0.10488272;stroke-miterlimit:4;stroke-opacity:1;stroke-dasharray:none"
       d="m -8.001761,9.06602 c -0.517709,0 -0.935739,0.417508 -0.935739,0.93574 0,0.518232 0.41803,0.93574 0.935739,0.93574 0.51771,0 0.93574,-0.417508 0.93574,-0.93574 0,-0.518232 -0.41803,-0.93574 -0.93574,-0.93574 z"
       id="path4428-22"
       inkscape:connector-curvature="0" />
    <path
       style="fill:#bebebe;fill-opacity:1;stroke:#bebebe;stroke-width:0.10613715;stroke-miterlimit:4;stroke-opacity:1;stroke-dasharray:none"
       d="m -1.990569,9.0625 c -0.523901,0 -0.946931,0.422501 -0.946931,0.946932 0,0.52443 0.42303,0.946931 0.946931,0.946931 0.523902,0 0.946932,-0.422501 0.946932,-0.946931 0,-0.524431 -0.42303,-0.946932 -0.946932,-0.946932 z"
       id="path4428-2-8"
       inkscape:connector-curvature="0" />
    <path
       style="fill:#bebebe;fill-opacity:1;stroke:#bebebe;stroke-width:0.10613713;stroke-miterlimit:4;stroke-opacity:1;stroke-dasharray:none"
       d="m 4.009431,9.0625 c -0.523902,0 -0.946931,0.422501 -0.946931,0.946932 0,0.52443 0.423029,0.946931 0.946931,0.946931 0.523902,0 0.946931,-0.422501 0.946931,-0.946931 0,-0.524431 -0.423029,-0.946932 -0.946931,-0.946932 z"
       id="path4428-8-4-5"
       inkscape:connector-curvature="0" />
    <path
       style="fill:#bebebe;fill-opacity:1;stroke:#bebebe;stroke-width:0.10488272;stroke-miterlimit:4;stroke-opacity:1;stroke-dasharray:none"
       d="m -6.001761,12.084883 c -0.517709,0 -0.935739,0.417508 -0.935739,0.93574 0,0.518232 0.41803,0.93574 0.935739,0.93574 0.51771,0 0.93574,-0.417508 0.93574,-0.93574 0,-0.518232 -0.41803,-0.93574 -0.93574,-0.93574 z"
       id="path4428-25-5"
       inkscape:connector-curvature="0" />
    <path
       style="fill:#bebebe;fill-opacity:1;stroke:#bebebe;stroke-width:0.10613715;stroke-miterlimit:4;stroke-opacity:1;stroke-dasharray:none"
       d="m 1.009431,9.0625 c -0.523901,0 -0.946931,0.422501 -0.946931,0.946932 0,0.52443 0.42303,0.946931 0.946931,0.946931 0.523902,0 0.946931,-0.422501 0.946931,-0.946931 0,-0.524431 -0.423029,-0.946932 -0.946931,-0.946932 z"
       id="path4428-2-9-1"
       inkscape:connector-curvature="0" />
    <path
       style="fill:#bebebe;fill-opacity:1;stroke:#bebebe;stroke-width:0.10613713;stroke-miterlimit:4;stroke-opacity:1;stroke-dasharray:none"
       d="m 6.009432,12.0625 c -0.523902,0 -0.946932,0.422501 -0.946932,0.946932 0,0.52443 0.42303,0.946931 0.946932,0.946931 0.523902,0 0.946931,-0.422501 0.946931,-0.946931 0,-0.524431 -0.423029,-0.946932 -0.946931,-0.946932 z"
       id="path4428-8-4-4-7"
       inkscape:connector-curvature="0" />
    <path
       style="fill:#bebebe;fill-opacity:1;stroke:#bebebe;stroke-width:0.10613715;stroke-miterlimit:4;stroke-opacity:1;stroke-dasharray:none"
       d="m 0.009431,12.081363 c -0.523901,0 -0.946931,0.422501 -0.946931,0.946931 0,0.52443 0.42303,0.946932 0.946931,0.946932 0.523902,0 0.946931,-0.422502 0.946931,-0.946932 0,-0.52443 -0.423029,-0.946931 -0.946931,-0.946931 z"
       id="path4428-2-2-6"
       inkscape:connector-curvature="0" />
    <path
       style="fill:#bebebe;fill-opacity:1;stroke:#bebebe;stroke-width:0.10613713;stroke-miterlimit:4;stroke-opacity:1;stroke-dasharray:none"
       d="m 9.009432,12.081363 c -0.523902,0 -0.946932,0.422501 -0.946932,0.946931 0,0.52443 0.42303,0.946932 0.946932,0.946932 0.523902,0 0.946931,-0.422502 0.946931,-0.946932 0,-0.52443 -0.423029,-0.946931 -0.946931,-0.946931 z"
       id="path4428-8-4-25-0"
       inkscape:connector-curvature="0" />
    <path
       style="fill:#bebebe;fill-opacity:1;stroke:#bebebe;stroke-width:0.10613715;stroke-miterlimit:4;stroke-opacity:1;stroke-dasharray:none"
       d="m -4.990569,9.043637 c -0.523901,0 -0.946931,0.422501 -0.946931,0.946932 0,0.52443 0.42303,0.946931 0.946931,0.946931 0.523902,0 0.946932,-0.422501 0.946932,-0.946931 0,-0.524431 -0.42303,-0.946932 -0.946932,-0.946932 z"
       id="path4428-2-0-1"
       inkscape:connector-curvature="0" />
    <path
       style="fill:#bebebe;fill-opacity:1;stroke:#bebebe;stroke-width:0.10613715;stroke-miterlimit:4;stroke-opacity:1;stroke-dasharray:none"
       d="m -2.990569,12.0625 c -0.523901,0 -0.946931,0.422501 -0.946931,0.946931 0,0.52443 0.42303,0.946932 0.946931,0.946932 0.523902,0 0.946932,-0.422502 0.946932,-0.946932 0,-0.52443 -0.42303,-0.946931 -0.946932,-0.946931 z"
       id="path4428-2-6-6"
       inkscape:connector-curvature="0" />
    <path
       style="fill:#bebebe;fill-opacity:1;stroke:#bebebe;stroke-width:0.10613713;stroke-miterlimit:4;stroke-opacity:1;stroke-dasharray:none"
       d="m 7.009431,9.043637 c -0.523902,0 -0.946931,0.422501 -0.946931,0.946932 0,0.52443 0.423029,0.946931 0.946931,0.946931 0.523902,0 0.946931,-0.422501 0.946931,-0.946931 0,-0.524431 -0.423029,-0.946932 -0.946931,-0.946932 z"
       id="path4428-8-4-3-8"
       inkscape:connector-curvature="0" />
    <path
       style="fill:#bebebe;fill-opacity:1;stroke:#bebebe;stroke-width:0.10613713;stroke-miterlimit:4;stroke-opacity:1;stroke-dasharray:none"
       d="m -9.009431,12.0625 c -0.523902,0 -0.946931,0.422502 -0.946931,0.946932 0,0.52443 0.423029,0.946931 0.946931,0.946931 0.523902,0 0.946931,-0.422501 0.946931,-0.946931 0,-0.52443 -0.423029,-0.946932 -0.946931,-0.946932 z"
       id="path4428-8-4-9-4"
       inkscape:connector-curvature="0" />
    <path
       style="fill:#bebebe;fill-opacity:1;stroke:#bebebe;stroke-width:0.10613713;stroke-miterlimit:4;stroke-opacity:1;stroke-dasharray:none"
       d="m 10.009432,9.0625 c -0.523902,0 -0.946932,0.422501 -0.946932,0.946931 0,0.52443 0.42303,0.946932 0.946932,0.946932 0.523902,0 0.946931,-0.422502 0.946931,-0.946932 0,-0.52443 -0.423029,-0.946931 -0.946931,-0.946931 z"
       id="path4428-8-4-25-9-3"
       inkscape:connector-curvature="0" />
    <path
       style="fill:#bebebe;fill-opacity:1;stroke:#bebebe;stroke-width:0.10613715;stroke-miterlimit:4;stroke-opacity:1;stroke-dasharray:none"
       d="m 3.009431,12.0625 c -0.523901,0 -0.946931,0.422501 -0.946931,0.946931 0,0.52443 0.42303,0.946932 0.946931,0.946932 0.523902,0 0.946931,-0.422502 0.946931,-0.946932 0,-0.52443 -0.423029,-0.946931 -0.946931,-0.946931 z"
       id="path4428-2-2-36-0"
       inkscape:connector-curvature="0" />
    <path
       style="fill:#bebebe;fill-opacity:1;stroke:#bebebe;stroke-width:0.10488272;stroke-miterlimit:4;stroke-opacity:1;stroke-dasharray:none"
       d="m -11.001762,9.024774 c -0.517709,0 -0.935739,0.417508 -0.935739,0.93574 0,0.518232 0.41803,0.93574 0.935739,0.93574 0.51771,0 0.93574,-0.417508 0.93574,-0.93574 0,-0.518232 -0.41803,-0.93574 -0.93574,-0.93574 z"
       id="path4428-0-8"
       inkscape:connector-curvature="0" />
    <path
       style="fill:#bebebe;fill-opacity:1;stroke:#bebebe;stroke-width:0.10488272;stroke-miterlimit:4;stroke-opacity:1;stroke-dasharray:none"
       d="m -12.05483,12.047157 c -0.517709,0 -0.935739,0.417508 -0.935739,0.93574 0,0.518232 0.41803,0.93574 0.935739,0.93574 0.51771,0 0.93574,-0.417508 0.93574,-0.93574 0,-0.518232 -0.41803,-0.93574 -0.93574,-0.93574 z"
       id="path4428-34-1"
       inkscape:connector-curvature="0" />
    <path
       style="fill:#bebebe;fill-opacity:1;stroke:#bebebe;stroke-width:0.10613713;stroke-miterlimit:4;stroke-opacity:1;stroke-dasharray:none"
       d="m 13.009432,9.0625 c -0.523902,0 -0.946932,0.422501 -0.946932,0.946931 0,0.52443 0.42303,0.946932 0.946932,0.946932 0.523902,0 0.946931,-0.422502 0.946931,-0.946932 0,-0.52443 -0.423029,-0.946931 -0.946931,-0.946931 z"
       id="path4428-8-4-25-9-09-7"
       inkscape:connector-curvature="0" />
    <path
       style="fill:#bebebe;fill-opacity:1;stroke:#bebebe;stroke-width:0.10613713;stroke-miterlimit:4;stroke-opacity:1;stroke-dasharray:none"
       d="m 12.009432,12.081363 c -0.523902,0 -0.946932,0.422501 -0.946932,0.946931 0,0.52443 0.42303,0.946932 0.946932,0.946932 0.523902,0 0.946931,-0.422502 0.946931,-0.946932 0,-0.52443 -0.423029,-0.946931 -0.946931,-0.946931 z"
       id="path4428-8-4-25-3-8"
       inkscape:connector-curvature="0" />
    <path
       style="fill:#bebebe;fill-opacity:1;stroke:#bebebe;stroke-width:0.10488272;stroke-miterlimit:4;stroke-opacity:1;stroke-dasharray:none"
       d="m -8.020623,15.028294 c -0.517709,0 -0.935739,0.417508 -0.935739,0.93574 0,0.518232 0.41803,0.93574 0.935739,0.93574 0.51771,0 0.93574,-0.417508 0.93574,-0.93574 0,-0.518232 -0.41803,-0.93574 -0.93574,-0.93574 z"
       id="path4428-27"
       inkscape:connector-curvature="0" />
    <path
       style="fill:#bebebe;fill-opacity:1;stroke:#bebebe;stroke-width:0.10613715;stroke-miterlimit:4;stroke-opacity:1;stroke-dasharray:none"
       d="m -2.009431,15.024774 c -0.523901,0 -0.946931,0.422501 -0.946931,0.946931 0,0.52443 0.42303,0.946932 0.946931,0.946932 0.523902,0 0.946932,-0.422502 0.946932,-0.946932 0,-0.52443 -0.42303,-0.946931 -0.946932,-0.946931 z"
       id="path4428-2-3"
       inkscape:connector-curvature="0" />
    <path
       style="fill:#bebebe;fill-opacity:1;stroke:#bebebe;stroke-width:0.10613713;stroke-miterlimit:4;stroke-opacity:1;stroke-dasharray:none"
       d="m 3.990569,15.024774 c -0.523902,0 -0.946931,0.422501 -0.946931,0.946931 0,0.52443 0.423029,0.946932 0.946931,0.946932 0.523902,0 0.946931,-0.422502 0.946931,-0.946932 0,-0.52443 -0.423029,-0.946931 -0.946931,-0.946931 z"
       id="path4428-8-4-58"
       inkscape:connector-curvature="0" />
    <path
       style="fill:#bebebe;fill-opacity:1;stroke:#bebebe;stroke-width:0.10488272;stroke-miterlimit:4;stroke-opacity:1;stroke-dasharray:none"
       d="m -6.020623,18.047157 c -0.517709,0 -0.935739,0.417508 -0.935739,0.93574 0,0.518232 0.41803,0.93574 0.935739,0.93574 0.51771,0 0.93574,-0.417508 0.93574,-0.93574 0,-0.518232 -0.41803,-0.93574 -0.93574,-0.93574 z"
       id="path4428-25-1"
       inkscape:connector-curvature="0" />
    <path
       style="fill:#bebebe;fill-opacity:1;stroke:#bebebe;stroke-width:0.10613715;stroke-miterlimit:4;stroke-opacity:1;stroke-dasharray:none"
       d="m 0.990569,15.024774 c -0.523901,0 -0.946931,0.422501 -0.946931,0.946931 0,0.52443 0.42303,0.946932 0.946931,0.946932 0.523902,0 0.946931,-0.422502 0.946931,-0.946932 0,-0.52443 -0.423029,-0.946931 -0.946931,-0.946931 z"
       id="path4428-2-9-9"
       inkscape:connector-curvature="0" />
    <path
       style="fill:#bebebe;fill-opacity:1;stroke:#bebebe;stroke-width:0.10613713;stroke-miterlimit:4;stroke-opacity:1;stroke-dasharray:none"
       d="m 5.99057,18.024774 c -0.523902,0 -0.946932,0.422501 -0.946932,0.946932 0,0.52443 0.42303,0.946931 0.946932,0.946931 0.523902,0 0.946931,-0.422501 0.946931,-0.946931 0,-0.524431 -0.423029,-0.946932 -0.946931,-0.946932 z"
       id="path4428-8-4-4-3"
       inkscape:connector-curvature="0" />
    <path
       style="fill:#bebebe;fill-opacity:1;stroke:#bebebe;stroke-width:0.10613715;stroke-miterlimit:4;stroke-opacity:1;stroke-dasharray:none"
       d="m -0.009431,18.043637 c -0.523901,0 -0.946931,0.422501 -0.946931,0.946931 0,0.52443 0.42303,0.946932 0.946931,0.946932 0.523902,0 0.946931,-0.422502 0.946931,-0.946932 0,-0.52443 -0.423029,-0.946931 -0.946931,-0.946931 z"
       id="path4428-2-2-7"
       inkscape:connector-curvature="0" />
    <path
       style="fill:#bebebe;fill-opacity:1;stroke:#bebebe;stroke-width:0.10613713;stroke-miterlimit:4;stroke-opacity:1;stroke-dasharray:none"
       d="m 8.99057,18.043637 c -0.523902,0 -0.946932,0.422501 -0.946932,0.946931 0,0.52443 0.42303,0.946932 0.946932,0.946932 0.523902,0 0.946931,-0.422502 0.946931,-0.946932 0,-0.52443 -0.423029,-0.946931 -0.946931,-0.946931 z"
       id="path4428-8-4-25-1"
       inkscape:connector-curvature="0" />
    <path
       style="fill:#bebebe;fill-opacity:1;stroke:#bebebe;stroke-width:0.10613715;stroke-miterlimit:4;stroke-opacity:1;stroke-dasharray:none"
       d="m -5.009431,15.005911 c -0.523901,0 -0.946931,0.422501 -0.946931,0.946931 0,0.52443 0.42303,0.946932 0.946931,0.946932 0.523902,0 0.946932,-0.422502 0.946932,-0.946932 0,-0.52443 -0.42303,-0.946931 -0.946932,-0.946931 z"
       id="path4428-2-0-5"
       inkscape:connector-curvature="0" />
    <path
       style="fill:#bebebe;fill-opacity:1;stroke:#bebebe;stroke-width:0.10613715;stroke-miterlimit:4;stroke-opacity:1;stroke-dasharray:none"
       d="m -3.009431,18.024774 c -0.523901,0 -0.946931,0.422501 -0.946931,0.946931 0,0.52443 0.42303,0.946932 0.946931,0.946932 0.523902,0 0.946932,-0.422502 0.946932,-0.946932 0,-0.52443 -0.42303,-0.946931 -0.946932,-0.946931 z"
       id="path4428-2-6-1"
       inkscape:connector-curvature="0" />
    <path
       style="fill:#bebebe;fill-opacity:1;stroke:#bebebe;stroke-width:0.10613713;stroke-miterlimit:4;stroke-opacity:1;stroke-dasharray:none"
       d="m 6.990569,15.005911 c -0.523902,0 -0.946931,0.422501 -0.946931,0.946931 0,0.52443 0.423029,0.946932 0.946931,0.946932 0.523902,0 0.946931,-0.422502 0.946931,-0.946932 0,-0.52443 -0.423029,-0.946931 -0.946931,-0.946931 z"
       id="path4428-8-4-3-6"
       inkscape:connector-curvature="0" />
    <path
       style="fill:#bebebe;fill-opacity:1;stroke:#bebebe;stroke-width:0.10613713;stroke-miterlimit:4;stroke-opacity:1;stroke-dasharray:none"
       d="m -9.028293,18.024774 c -0.523902,0 -0.946931,0.422501 -0.946931,0.946932 0,0.52443 0.423029,0.946931 0.946931,0.946931 0.523902,0 0.946931,-0.422501 0.946931,-0.946931 0,-0.524431 -0.423029,-0.946932 -0.946931,-0.946932 z"
       id="path4428-8-4-9-9"
       inkscape:connector-curvature="0" />
    <path
       style="fill:#bebebe;fill-opacity:1;stroke:#bebebe;stroke-width:0.10613713;stroke-miterlimit:4;stroke-opacity:1;stroke-dasharray:none"
       d="m 9.99057,15.024774 c -0.523902,0 -0.946932,0.422501 -0.946932,0.946931 0,0.52443 0.42303,0.946932 0.946932,0.946932 0.523902,0 0.946931,-0.422502 0.946931,-0.946932 0,-0.52443 -0.423029,-0.946931 -0.946931,-0.946931 z"
       id="path4428-8-4-25-9-9"
       inkscape:connector-curvature="0" />
    <path
       style="fill:#bebebe;fill-opacity:1;stroke:#bebebe;stroke-width:0.10613715;stroke-miterlimit:4;stroke-opacity:1;stroke-dasharray:none"
       d="m 2.990569,18.024774 c -0.523901,0 -0.946931,0.422501 -0.946931,0.946931 0,0.52443 0.42303,0.946932 0.946931,0.946932 0.523902,0 0.946931,-0.422502 0.946931,-0.946932 0,-0.52443 -0.423029,-0.946931 -0.946931,-0.946931 z"
       id="path4428-2-2-36-1"
       inkscape:connector-curvature="0" />
    <path
       style="fill:#bebebe;fill-opacity:1;stroke:#bebebe;stroke-width:0.10488272;stroke-miterlimit:4;stroke-opacity:1;stroke-dasharray:none"
       d="m -11.020624,14.987048 c -0.517709,0 -0.935739,0.417508 -0.935739,0.93574 0,0.518232 0.41803,0.93574 0.935739,0.93574 0.51771,0 0.93574,-0.417508 0.93574,-0.93574 0,-0.518232 -0.41803,-0.93574 -0.93574,-0.93574 z"
       id="path4428-0-5"
       inkscape:connector-curvature="0" />
    <path
       style="fill:#bebebe;fill-opacity:1;stroke:#bebebe;stroke-width:0.10488272;stroke-miterlimit:4;stroke-opacity:1;stroke-dasharray:none"
       d="m -12.073692,18.009431 c -0.517709,0 -0.935739,0.417508 -0.935739,0.93574 0,0.518232 0.41803,0.93574 0.935739,0.93574 0.51771,0 0.93574,-0.417508 0.93574,-0.93574 0,-0.518232 -0.41803,-0.93574 -0.93574,-0.93574 z"
       id="path4428-34-3"
       inkscape:connector-curvature="0" />
    <path
       style="fill:#bebebe;fill-opacity:1;stroke:#bebebe;stroke-width:0.10613713;stroke-miterlimit:4;stroke-opacity:1;stroke-dasharray:none"
       d="m 12.99057,15.024774 c -0.523902,0 -0.946932,0.422501 -0.946932,0.946931 0,0.52443 0.42303,0.946932 0.946932,0.946932 0.523902,0 0.946931,-0.422502 0.946931,-0.946932 0,-0.52443 -0.423029,-0.946931 -0.946931,-0.946931 z"
       id="path4428-8-4-25-9-09-8"
       inkscape:connector-curvature="0" />
    <path
       style="fill:#bebebe;fill-opacity:1;stroke:#bebebe;stroke-width:0.10613713;stroke-miterlimit:4;stroke-opacity:1;stroke-dasharray:none"
       d="m 11.99057,18.043637 c -0.523902,0 -0.946932,0.422501 -0.946932,0.946931 0,0.52443 0.42303,0.946932 0.946932,0.946932 0.523902,0 0.946931,-0.422502 0.946931,-0.946932 0,-0.52443 -0.423029,-0.946931 -0.946931,-0.946931 z"
       id="path4428-8-4-25-3-1"
       inkscape:connector-curvature="0" />
    <path
       style="fill:#bebebe;fill-opacity:1;stroke:#bebebe;stroke-width:0.10488272;stroke-miterlimit:4;stroke-opacity:1;stroke-dasharray:none"
       d="m -8.001761,21.06602 c -0.517709,0 -0.935739,0.417508 -0.935739,0.93574 0,0.518232 0.41803,0.93574 0.935739,0.93574 0.51771,0 0.93574,-0.417508 0.93574,-0.93574 0,-0.518232 -0.41803,-0.93574 -0.93574,-0.93574 z"
       id="path4428-22-3"
       inkscape:connector-curvature="0" />
    <path
       style="fill:#bebebe;fill-opacity:1;stroke:#bebebe;stroke-width:0.10613715;stroke-miterlimit:4;stroke-opacity:1;stroke-dasharray:none"
       d="m -1.990569,21.0625 c -0.523901,0 -0.946931,0.422501 -0.946931,0.946932 0,0.52443 0.42303,0.946931 0.946931,0.946931 0.523902,0 0.946932,-0.422501 0.946932,-0.946931 0,-0.524431 -0.42303,-0.946932 -0.946932,-0.946932 z"
       id="path4428-2-8-1"
       inkscape:connector-curvature="0" />
    <path
       style="fill:#bebebe;fill-opacity:1;stroke:#bebebe;stroke-width:0.10613713;stroke-miterlimit:4;stroke-opacity:1;stroke-dasharray:none"
       d="m 4.009431,21.0625 c -0.523902,0 -0.946931,0.422501 -0.946931,0.946932 0,0.52443 0.423029,0.946931 0.946931,0.946931 0.523902,0 0.946931,-0.422501 0.946931,-0.946931 0,-0.524431 -0.423029,-0.946932 -0.946931,-0.946932 z"
       id="path4428-8-4-5-9"
       inkscape:connector-curvature="0" />
    <path
       style="fill:#bebebe;fill-opacity:1;stroke:#bebebe;stroke-width:0.10488272;stroke-miterlimit:4;stroke-opacity:1;stroke-dasharray:none"
       d="m -6.001761,24.084883 c -0.517709,0 -0.935739,0.417508 -0.935739,0.93574 0,0.518232 0.41803,0.93574 0.935739,0.93574 0.51771,0 0.93574,-0.417508 0.93574,-0.93574 0,-0.518232 -0.41803,-0.93574 -0.93574,-0.93574 z"
       id="path4428-25-5-1"
       inkscape:connector-curvature="0" />
    <path
       style="fill:#bebebe;fill-opacity:1;stroke:#bebebe;stroke-width:0.10613715;stroke-miterlimit:4;stroke-opacity:1;stroke-dasharray:none"
       d="m 1.009431,21.0625 c -0.523901,0 -0.946931,0.422501 -0.946931,0.946932 0,0.52443 0.42303,0.946931 0.946931,0.946931 0.523902,0 0.946931,-0.422501 0.946931,-0.946931 0,-0.524431 -0.423029,-0.946932 -0.946931,-0.946932 z"
       id="path4428-2-9-1-7"
       inkscape:connector-curvature="0" />
    <path
       style="fill:#bebebe;fill-opacity:1;stroke:#bebebe;stroke-width:0.10613713;stroke-miterlimit:4;stroke-opacity:1;stroke-dasharray:none"
       d="m 6.009432,24.0625 c -0.523902,0 -0.946932,0.422501 -0.946932,0.946932 0,0.52443 0.42303,0.946931 0.946932,0.946931 0.523902,0 0.946931,-0.422501 0.946931,-0.946931 0,-0.524431 -0.423029,-0.946932 -0.946931,-0.946932 z"
       id="path4428-8-4-4-7-3"
       inkscape:connector-curvature="0" />
    <path
       style="fill:#bebebe;fill-opacity:1;stroke:#bebebe;stroke-width:0.10613715;stroke-miterlimit:4;stroke-opacity:1;stroke-dasharray:none"
       d="m 0.009431,24.081363 c -0.523901,0 -0.946931,0.422501 -0.946931,0.946931 0,0.52443 0.42303,0.946932 0.946931,0.946932 0.523902,0 0.946931,-0.422502 0.946931,-0.946932 0,-0.52443 -0.423029,-0.946931 -0.946931,-0.946931 z"
       id="path4428-2-2-6-2"
       inkscape:connector-curvature="0" />
    <path
       style="fill:#bebebe;fill-opacity:1;stroke:#bebebe;stroke-width:0.10613713;stroke-miterlimit:4;stroke-opacity:1;stroke-dasharray:none"
       d="m 9.009432,24.081363 c -0.523902,0 -0.946932,0.422501 -0.946932,0.946931 0,0.52443 0.42303,0.946932 0.946932,0.946932 0.523902,0 0.946931,-0.422502 0.946931,-0.946932 0,-0.52443 -0.423029,-0.946931 -0.946931,-0.946931 z"
       id="path4428-8-4-25-0-6"
       inkscape:connector-curvature="0" />
    <path
       style="fill:#bebebe;fill-opacity:1;stroke:#bebebe;stroke-width:0.10613715;stroke-miterlimit:4;stroke-opacity:1;stroke-dasharray:none"
       d="m -4.990569,21.043637 c -0.523901,0 -0.946931,0.422501 -0.946931,0.946932 0,0.52443 0.42303,0.946931 0.946931,0.946931 0.523902,0 0.946932,-0.422501 0.946932,-0.946931 0,-0.524431 -0.42303,-0.946932 -0.946932,-0.946932 z"
       id="path4428-2-0-1-6"
       inkscape:connector-curvature="0" />
    <path
       style="fill:#bebebe;fill-opacity:1;stroke:#bebebe;stroke-width:0.10613715;stroke-miterlimit:4;stroke-opacity:1;stroke-dasharray:none"
       d="m -2.990569,24.0625 c -0.523901,0 -0.946931,0.422501 -0.946931,0.946931 0,0.52443 0.42303,0.946932 0.946931,0.946932 0.523902,0 0.946932,-0.422502 0.946932,-0.946932 0,-0.52443 -0.42303,-0.946931 -0.946932,-0.946931 z"
       id="path4428-2-6-6-9"
       inkscape:connector-curvature="0" />
    <path
       style="fill:#bebebe;fill-opacity:1;stroke:#bebebe;stroke-width:0.10613713;stroke-miterlimit:4;stroke-opacity:1;stroke-dasharray:none"
       d="m 7.009431,21.043637 c -0.523902,0 -0.946931,0.422501 -0.946931,0.946932 0,0.52443 0.423029,0.946931 0.946931,0.946931 0.523902,0 0.946931,-0.422501 0.946931,-0.946931 0,-0.524431 -0.423029,-0.946932 -0.946931,-0.946932 z"
       id="path4428-8-4-3-8-6"
       inkscape:connector-curvature="0" />
    <path
       style="fill:#bebebe;fill-opacity:1;stroke:#bebebe;stroke-width:0.10613713;stroke-miterlimit:4;stroke-opacity:1;stroke-dasharray:none"
       d="m -9.009431,24.0625 c -0.523902,0 -0.946931,0.422502 -0.946931,0.946932 0,0.52443 0.423029,0.946931 0.946931,0.946931 0.523902,0 0.946931,-0.422501 0.946931,-0.946931 0,-0.52443 -0.423029,-0.946932 -0.946931,-0.946932 z"
       id="path4428-8-4-9-4-8"
       inkscape:connector-curvature="0" />
    <path
       style="fill:#bebebe;fill-opacity:1;stroke:#bebebe;stroke-width:0.10613713;stroke-miterlimit:4;stroke-opacity:1;stroke-dasharray:none"
       d="m 10.009432,21.0625 c -0.523902,0 -0.946932,0.422501 -0.946932,0.946931 0,0.52443 0.42303,0.946932 0.946932,0.946932 0.523902,0 0.946931,-0.422502 0.946931,-0.946932 0,-0.52443 -0.423029,-0.946931 -0.946931,-0.946931 z"
       id="path4428-8-4-25-9-3-9"
       inkscape:connector-curvature="0" />
    <path
       style="fill:#bebebe;fill-opacity:1;stroke:#bebebe;stroke-width:0.10613715;stroke-miterlimit:4;stroke-opacity:1;stroke-dasharray:none"
       d="m 3.009431,24.0625 c -0.523901,0 -0.946931,0.422501 -0.946931,0.946931 0,0.52443 0.42303,0.946932 0.946931,0.946932 0.523902,0 0.946931,-0.422502 0.946931,-0.946932 0,-0.52443 -0.423029,-0.946931 -0.946931,-0.946931 z"
       id="path4428-2-2-36-0-9"
       inkscape:connector-curvature="0" />
    <path
       style="fill:#bebebe;fill-opacity:1;stroke:#bebebe;stroke-width:0.10488272;stroke-miterlimit:4;stroke-opacity:1;stroke-dasharray:none"
       d="m -11.001762,21.024774 c -0.517709,0 -0.935739,0.417508 -0.935739,0.93574 0,0.518232 0.41803,0.93574 0.935739,0.93574 0.51771,0 0.93574,-0.417508 0.93574,-0.93574 0,-0.518232 -0.41803,-0.93574 -0.93574,-0.93574 z"
       id="path4428-0-8-5"
       inkscape:connector-curvature="0" />
    <path
       style="fill:#bebebe;fill-opacity:1;stroke:#bebebe;stroke-width:0.10488272;stroke-miterlimit:4;stroke-opacity:1;stroke-dasharray:none"
       d="m -12.05483,24.047157 c -0.517709,0 -0.935739,0.417508 -0.935739,0.93574 0,0.518232 0.41803,0.93574 0.935739,0.93574 0.51771,0 0.93574,-0.417508 0.93574,-0.93574 0,-0.518232 -0.41803,-0.93574 -0.93574,-0.93574 z"
       id="path4428-34-1-9"
       inkscape:connector-curvature="0" />
    <path
       style="fill:#bebebe;fill-opacity:1;stroke:#bebebe;stroke-width:0.10613713;stroke-miterlimit:4;stroke-opacity:1;stroke-dasharray:none"
       d="m 13.009432,21.0625 c -0.523902,0 -0.946932,0.422501 -0.946932,0.946931 0,0.52443 0.42303,0.946932 0.946932,0.946932 0.523902,0 0.946931,-0.422502 0.946931,-0.946932 0,-0.52443 -0.423029,-0.946931 -0.946931,-0.946931 z"
       id="path4428-8-4-25-9-09-7-2"
       inkscape:connector-curvature="0" />
    <path
       style="fill:#bebebe;fill-opacity:1;stroke:#bebebe;stroke-width:0.10613713;stroke-miterlimit:4;stroke-opacity:1;stroke-dasharray:none"
       d="m 12.009432,24.081363 c -0.523902,0 -0.946932,0.422501 -0.946932,0.946931 0,0.52443 0.42303,0.946932 0.946932,0.946932 0.523902,0 0.946931,-0.422502 0.946931,-0.946932 0,-0.52443 -0.423029,-0.946931 -0.946931,-0.946931 z"
       id="path4428-8-4-25-3-8-6"
       inkscape:connector-curvature="0" />
    <path
       style="fill:#bebebe;fill-opacity:1;stroke:#bebebe;stroke-width:0.10488272;stroke-miterlimit:4;stroke-opacity:1;stroke-dasharray:none"
       d="m -5.020624,27.06602 c -0.517709,0 -0.935739,0.417508 -0.935739,0.93574 0,0.518232 0.41803,0.93574 0.935739,0.93574 0.51771,0 0.93574,-0.417508 0.93574,-0.93574 0,-0.518232 -0.41803,-0.93574 -0.93574,-0.93574 z"
       id="path4428-25-5-1-3"
       inkscape:connector-curvature="0" />
    <path
       style="fill:#bebebe;fill-opacity:1;stroke:#bebebe;stroke-width:0.10613713;stroke-miterlimit:4;stroke-opacity:1;stroke-dasharray:none"
       d="m 6.990569,27.043637 c -0.523902,0 -0.946932,0.422501 -0.946932,0.946932 0,0.52443 0.42303,0.946931 0.946932,0.946931 0.523902,0 0.946931,-0.422501 0.946931,-0.946931 0,-0.524431 -0.423029,-0.946932 -0.946931,-0.946932 z"
       id="path4428-8-4-4-7-3-9"
       inkscape:connector-curvature="0" />
    <path
       style="fill:#bebebe;fill-opacity:1;stroke:#bebebe;stroke-width:0.10613715;stroke-miterlimit:4;stroke-opacity:1;stroke-dasharray:none"
       d="m 0.990568,27.0625 c -0.523901,0 -0.946931,0.422501 -0.946931,0.946931 0,0.52443 0.42303,0.946932 0.946931,0.946932 0.523902,0 0.946931,-0.422502 0.946931,-0.946932 0,-0.52443 -0.423029,-0.946931 -0.946931,-0.946931 z"
       id="path4428-2-2-6-2-0"
       inkscape:connector-curvature="0" />
    <path
       style="fill:#bebebe;fill-opacity:1;stroke:#bebebe;stroke-width:0.10613713;stroke-miterlimit:4;stroke-opacity:1;stroke-dasharray:none"
       d="m 9.990569,27.0625 c -0.523902,0 -0.946932,0.422501 -0.946932,0.946931 0,0.52443 0.42303,0.946932 0.946932,0.946932 0.523902,0 0.946931,-0.422502 0.946931,-0.946932 0,-0.52443 -0.423029,-0.946931 -0.946931,-0.946931 z"
       id="path4428-8-4-25-0-6-0"
       inkscape:connector-curvature="0" />
    <path
       style="fill:#bebebe;fill-opacity:1;stroke:#bebebe;stroke-width:0.10613715;stroke-miterlimit:4;stroke-opacity:1;stroke-dasharray:none"
       d="m -2.009432,27.043637 c -0.523901,0 -0.946931,0.422501 -0.946931,0.946931 0,0.52443 0.42303,0.946932 0.946931,0.946932 0.523902,0 0.946932,-0.422502 0.946932,-0.946932 0,-0.52443 -0.42303,-0.946931 -0.946932,-0.946931 z"
       id="path4428-2-6-6-9-0"
       inkscape:connector-curvature="0" />
    <path
       style="fill:#bebebe;fill-opacity:1;stroke:#bebebe;stroke-width:0.10613713;stroke-miterlimit:4;stroke-opacity:1;stroke-dasharray:none"
       d="m -8.028294,27.043637 c -0.523902,0 -0.946931,0.422502 -0.946931,0.946932 0,0.52443 0.423029,0.946931 0.946931,0.946931 0.523902,0 0.946931,-0.422501 0.946931,-0.946931 0,-0.52443 -0.423029,-0.946932 -0.946931,-0.946932 z"
       id="path4428-8-4-9-4-8-6"
       inkscape:connector-curvature="0" />
    <path
       style="fill:#bebebe;fill-opacity:1;stroke:#bebebe;stroke-width:0.10613715;stroke-miterlimit:4;stroke-opacity:1;stroke-dasharray:none"
       d="m 3.990568,27.043637 c -0.523901,0 -0.946931,0.422501 -0.946931,0.946931 0,0.52443 0.42303,0.946932 0.946931,0.946932 0.523902,0 0.946931,-0.422502 0.946931,-0.946932 0,-0.52443 -0.423029,-0.946931 -0.946931,-0.946931 z"
       id="path4428-2-2-36-0-9-9"
       inkscape:connector-curvature="0" />
    <path
       style="fill:#bebebe;fill-opacity:1;stroke:#bebebe;stroke-width:0.10488272;stroke-miterlimit:4;stroke-opacity:1;stroke-dasharray:none"
       d="m -11.073693,27.028294 c -0.517709,0 -0.935739,0.417508 -0.935739,0.93574 0,0.518232 0.41803,0.93574 0.935739,0.93574 0.51771,0 0.93574,-0.417508 0.93574,-0.93574 0,-0.518232 -0.41803,-0.93574 -0.93574,-0.93574 z"
       id="path4428-34-1-9-2"
       inkscape:connector-curvature="0" />
    <path
       style="fill:#bebebe;fill-opacity:1;stroke:#bebebe;stroke-width:0.10613713;stroke-miterlimit:4;stroke-opacity:1;stroke-dasharray:none"
       d="m 12.990569,27.0625 c -0.523902,0 -0.946932,0.422501 -0.946932,0.946931 0,0.52443 0.42303,0.946932 0.946932,0.946932 0.523902,0 0.946931,-0.422502 0.946931,-0.946932 0,-0.52443 -0.423029,-0.946931 -0.946931,-0.946931 z"
       id="path4428-8-4-25-3-8-6-7"
       inkscape:connector-curvature="0" />
  </g>
</svg>
