<?xml version="1.0" encoding="UTF-8" standalone="no"?>
<!-- Created with Inkscape (http://www.inkscape.org/) -->

<svg
   xmlns:dc="http://purl.org/dc/elements/1.1/"
   xmlns:cc="http://creativecommons.org/ns#"
   xmlns:rdf="http://www.w3.org/1999/02/22-rdf-syntax-ns#"
   xmlns:svg="http://www.w3.org/2000/svg"
   xmlns="http://www.w3.org/2000/svg"
   xmlns:sodipodi="http://sodipodi.sourceforge.net/DTD/sodipodi-0.dtd"
   xmlns:inkscape="http://www.inkscape.org/namespaces/inkscape"
   width="32"
   height="32"
   id="svg4420"
   version="1.1"
   inkscape:version="0.48.4 r9939"
   sodipodi:docname="astroweather-cloudcover-6.svg">
  <defs
     id="defs4422" />
  <sodipodi:namedview
     id="base"
     pagecolor="#555753"
     bordercolor="#555753"
     borderopacity="1"
     inkscape:pageopacity="1"
     inkscape:pageshadow="2"
     inkscape:zoom="22.197802"
     inkscape:cx="17.499735"
     inkscape:cy="7.7265745"
     inkscape:current-layer="layer1"
     showgrid="true"
     inkscape:grid-bbox="true"
     inkscape:document-units="px"
     showborder="false"
     inkscape:snap-global="true"
     inkscape:snap-bbox="true"
     inkscape:window-width="1366"
     inkscape:window-height="702"
     inkscape:window-x="0"
     inkscape:window-y="27"
     inkscape:window-maximized="1"
     fit-margin-top="1"
     fit-margin-left="1"
     fit-margin-right="1"
     fit-margin-bottom="1">
    <inkscape:grid
       type="xygrid"
       id="grid5514"
       empspacing="5"
       visible="true"
       enabled="true"
       snapvisiblegridlinesonly="true"
       originx="16.000001px"
       originy="16px" />
  </sodipodi:namedview>
  <metadata
     id="metadata4425">
    <rdf:RDF>
      <cc:Work
         rdf:about="">
        <dc:format>image/svg+xml</dc:format>
        <dc:type
           rdf:resource="http://purl.org/dc/dcmitype/StillImage" />
        <dc:title />
      </cc:Work>
    </rdf:RDF>
  </metadata>
  <g
     id="layer1"
     inkscape:label="Layer 1"
     inkscape:groupmode="layer"
     transform="translate(16.000001,4.1387281e-8)">
    <path
       sodipodi:type="arc"
       style="fill:none;stroke:#bebebe;stroke-width:0.5;stroke-miterlimit:4;stroke-opacity:1;stroke-dasharray:none"
       id="path4428"
       sodipodi:cx="8.1314354"
       sodipodi:cy="8.8821783"
       sodipodi:rx="4.4373765"
       sodipodi:ry="4.5049505"
       d="m 12.568812,8.8821783 c 0,2.4880157 -1.986681,4.5049507 -4.4373766,4.5049507 -2.4506954,0 -4.4373765,-2.016935 -4.4373765,-4.5049507 0,-2.4880155 1.9866811,-4.5049505 4.4373765,-4.5049505 2.4506956,0 4.4373766,2.016935 4.4373766,4.5049505 z"
       transform="matrix(3.2013698,0,0,3.1533493,-26.031732,-12.008611)" />
    <path
       sodipodi:type="arc"
       style="fill:#bebebe;fill-opacity:1;stroke:none"
       id="path5516"
       sodipodi:cx="0"
       sodipodi:cy="16"
       sodipodi:rx="15"
       sodipodi:ry="15"
       d="M 0.03543626,1.0000419 C 8.3196844,1.0196128 15.019529,7.7511881 14.999958,16.035436 14.980387,24.319684 8.2488119,31.019529 -0.03543626,30.999958 -3.9760906,30.990649 -7.7548071,29.431002 -10.554817,26.658135 L 0,16 z"
       transform="matrix(0.99999994,0,0,0.99995268,-3.4544621e-8,5.4666218e-6)"
       sodipodi:start="4.7147514"
       sodipodi:end="8.6345093" />
  </g>
</svg>
